{
  "data": {
    "curPage": 1,
    "datas": [
      {
        "adminAdd": false,
        "apkLink": "",
        "audit": 1,
        "author": "张鸿洋",
        "canEdit": false,
        "chapterId": 543,
        "chapterName": "Android技术周报",
        "collect": false,
        "courseId": 13,
        "desc": "",
        "descMd": "",
        "envelopePic": "",
        "fresh": false,
        "host": "",
        "id": 28623,
        "isAdminAdd": false,
        "link": "https://www.wanandroid.com/blog/show/3669",
        "niceDate": "1天前",
        "niceShareDate": "1天前",
        "origin": "",
        "prefix": "",
        "projectLink": "",
        "publishTime": 1719763200000,
        "realSuperChapterId": 542,
        "selfVisible": 0,
        "shareDate": 1719763800000,
        "shareUser": "",
        "superChapterId": 543,
        "superChapterName": "技术周报",
        "tags": [],
        "title": "Android 技术周刊 （2024-06-24 ~ 2024-07-01）",
        "type": 0,
        "userId": -1,
        "visible": 1,
        "zan": 0
      },
      {
        "adminAdd": false,
        "apkLink": "",
        "audit": 1,
        "author": "",
        "canEdit": false,
        "chapterId": 502,
        "chapterName": "自助",
        "collect": false,
        "courseId": 13,
        "desc": "",
        "descMd": "",
        "envelopePic": "",
        "fresh": false,
        "host": "",
        "id": 28606,
        "isAdminAdd": false,
        "link": "https://juejin.cn/post/7381388012276580371",
        "niceDate": "1天前",
        "niceShareDate": "1天前",
        "origin": "",
        "prefix": "",
        "projectLink": "",
        "publishTime": 1719759845000,
        "realSuperChapterId": 493,
        "selfVisible": 0,
        "shareDate": 1719759489000,
        "shareUser": "鸿洋",
        "superChapterId": 494,
        "superChapterName": "广场Tab",
        "tags": [],
        "title": "ART堆内存系列：GC抑制从入门到精通",
        "type": 0,
        "userId": 2,
        "visible": 1,
        "zan": 0
      },
      {
        "adminAdd": false,
        "apkLink": "",
        "audit": 1,
        "author": "",
        "canEdit": false,
        "chapterId": 502,
        "chapterName": "自助",
        "collect": false,
        "courseId": 13,
        "desc": "",
        "descMd": "",
        "envelopePic": "",
        "fresh": false,
        "host": "",
        "id": 28607,
        "isAdminAdd": false,
        "link": "https://juejin.cn/post/7383311950175272998",
        "niceDate": "1天前",
        "niceShareDate": "1天前",
        "origin": "",
        "prefix": "",
        "projectLink": "",
        "publishTime": 1719759843000,
        "realSuperChapterId": 493,
        "selfVisible": 0,
        "shareDate": 1719759506000,
        "shareUser": "鸿洋",
        "superChapterId": 494,
        "superChapterName": "广场Tab",
        "tags": [],
        "title": "【Android】就想下载个文件到SD卡，怎就这么难？快把代码拿走吧",
        "type": 0,
        "userId": 2,
        "visible": 1,
        "zan": 0
      },
      {
        "adminAdd": false,
        "apkLink": "",
        "audit": 1,
        "author": "",
        "canEdit": false,
        "chapterId": 502,
        "chapterName": "自助",
        "collect": false,
        "courseId": 13,
        "desc": "",
        "descMd": "",
        "envelopePic": "",
        "fresh": false,
        "host": "",
        "id": 28608,
        "isAdminAdd": false,
        "link": "https://mp.weixin.qq.com/s?__biz=MzU5OTgzNzM0NA==&amp;mid=2247489414&amp;idx=1&amp;sn=8902b8a02c59de6096a6b3227f1cfe3b&amp;chksm=feaf8849c9d8015fa2b99aaa656229503b52bd416b4c0e4562aa645851856eae15d28618b5d5&amp;token=1534165006&amp;lang=zh_CN#rd",
        "niceDate": "1天前",
        "niceShareDate": "1天前",
        "origin": "",
        "prefix": "",
        "projectLink": "",
        "publishTime": 1719759841000,
        "realSuperChapterId": 493,
        "selfVisible": 0,
        "shareDate": 1719759515000,
        "shareUser": "鸿洋",
        "superChapterId": 494,
        "superChapterName": "广场Tab",
        "tags": [],
        "title": "SurfaceFlinger深入介绍",
        "type": 0,
        "userId": 2,
        "visible": 1,
        "zan": 0
      },
      {
        "adminAdd": false,
        "apkLink": "",
        "audit": 1,
        "author": "",
        "canEdit": false,
        "chapterId": 502,
        "chapterName": "自助",
        "collect": false,
        "courseId": 13,
        "desc": "",
        "descMd": "",
        "envelopePic": "",
        "fresh": false,
        "host": "",
        "id": 28609,
        "isAdminAdd": false,
        "link": "https://mp.weixin.qq.com/s?__biz=Mzg5MDYxMDE3Mw==&amp;mid=2247484754&amp;idx=1&amp;sn=cf40051283ce4fe482c045514c2c8bfd&amp;chksm=cfdb4dc0f8acc4d6d0696465e965e6d6994204d3120c1ca673d97949858850a41034d720e538&amp;token=1534165006&amp;lang=zh_CN#rd",
        "niceDate": "1天前",
        "niceShareDate": "1天前",
        "origin": "",
        "prefix": "",
        "projectLink": "",
        "publishTime": 1719759839000,
        "realSuperChapterId": 493,
        "selfVisible": 0,
        "shareDate": 1719759524000,
        "shareUser": "鸿洋",
        "superChapterId": 494,
        "superChapterName": "广场Tab",
        "tags": [],
        "title": "2024年移动端技术探索",
        "type": 0,
        "userId": 2,
        "visible": 1,
        "zan": 0
      },
      {
        "adminAdd": false,
        "apkLink": "",
        "audit": 1,
        "author": "",
        "canEdit": false,
        "chapterId": 502,
        "chapterName": "自助",
        "collect": false,
        "courseId": 13,
        "desc": "",
        "descMd": "",
        "envelopePic": "",
        "fresh": false,
        "host": "",
        "id": 28610,
        "isAdminAdd": false,
        "link": "https://mp.weixin.qq.com/s?__biz=MzIzNTc5NDY4Nw==&amp;mid=2247489801&amp;idx=1&amp;sn=deb65b9ac994e25695513eecc5e0e3b5&amp;chksm=e8e0e099df97698ff0937b8d995b1d5377dd3ee1894b07f23d6d1a96ff09973dfe0339b2e577&amp;token=1534165006&amp;lang=zh_CN#rd",
        "niceDate": "1天前",
        "niceShareDate": "1天前",
        "origin": "",
        "prefix": "",
        "projectLink": "",
        "publishTime": 1719759836000,
        "realSuperChapterId": 493,
        "selfVisible": 0,
        "shareDate": 1719759534000,
        "shareUser": "鸿洋",
        "superChapterId": 494,
        "superChapterName": "广场Tab",
        "tags": [],
        "title": "Android打造丝滑的Activity recreate重建（主题切换）过渡动画",
        "type": 0,
        "userId": 2,
        "visible": 1,
        "zan": 0
      },
      {
        "adminAdd": false,
        "apkLink": "",
        "audit": 1,
        "author": "",
        "canEdit": false,
        "chapterId": 502,
        "chapterName": "自助",
        "collect": false,
        "courseId": 13,
        "desc": "",
        "descMd": "",
        "envelopePic": "",
        "fresh": false,
        "host": "",
        "id": 28605,
        "isAdminAdd": false,
        "link": "https://juejin.cn/post/7384629198130708519",
        "niceDate": "1天前",
        "niceShareDate": "1天前",
        "origin": "",
        "prefix": "",
        "projectLink": "",
        "publishTime": 1719759834000,
        "realSuperChapterId": 493,
        "selfVisible": 0,
        "shareDate": 1719759010000,
        "shareUser": "鸿洋",
        "superChapterId": 494,
        "superChapterName": "广场Tab",
        "tags": [],
        "title": "【源码解析】FloatWindow弹窗梳理",
        "type": 0,
        "userId": 2,
        "visible": 1,
        "zan": 0
      },
      {
        "adminAdd": false,
        "apkLink": "",
        "audit": 1,
        "author": "",
        "canEdit": false,
        "chapterId": 502,
        "chapterName": "自助",
        "collect": false,
        "courseId": 13,
        "desc": "",
        "descMd": "",
        "envelopePic": "",
        "fresh": false,
        "host": "",
        "id": 28611,
        "isAdminAdd": false,
        "link": "https://mp.weixin.qq.com/s?__biz=MzAxODg1NzQ4OA==&amp;mid=2247484401&amp;idx=1&amp;sn=62e116a363ca802263e77160d98e4019&amp;chksm=9bcea88eacb92198ac30eb082c3392f5e053f114a7de6737c751d70121e89b1e5253fdc4ad1b&amp;token=1534165006&amp;lang=zh_CN#rd",
        "niceDate": "1天前",
        "niceShareDate": "1天前",
        "origin": "",
        "prefix": "",
        "projectLink": "",
        "publishTime": 1719759830000,
        "realSuperChapterId": 493,
        "selfVisible": 0,
        "shareDate": 1719759546000,
        "shareUser": "鸿洋",
        "superChapterId": 494,
        "superChapterName": "广场Tab",
        "tags": [],
        "title": "Android hide api反射方案合集",
        "type": 0,
        "userId": 2,
        "visible": 1,
        "zan": 0
      },
      {
        "adminAdd": false,
        "apkLink": "",
        "audit": 1,
        "author": "",
        "canEdit": false,
        "chapterId": 502,
        "chapterName": "自助",
        "collect": false,
        "courseId": 13,
        "desc": "",
        "descMd": "",
        "envelopePic": "",
        "fresh": false,
        "host": "",
        "id": 28612,
        "isAdminAdd": false,
        "link": "https://juejin.cn/post/7385598747135131698",
        "niceDate": "1天前",
        "niceShareDate": "1天前",
        "origin": "",
        "prefix": "",
        "projectLink": "",
        "publishTime": 1719759828000,
        "realSuperChapterId": 493,
        "selfVisible": 0,
        "shareDate": 1719759730000,
        "shareUser": "鸿洋",
        "superChapterId": 494,
        "superChapterName": "广场Tab",
        "tags": [],
        "title": "鸿蒙如何打包应用程序",
        "type": 0,
        "userId": 2,
        "visible": 1,
        "zan": 0
      },
      {
        "adminAdd": false,
        "apkLink": "",
        "audit": 1,
        "author": "",
        "canEdit": false,
        "chapterId": 502,
        "chapterName": "自助",
        "collect": false,
        "courseId": 13,
        "desc": "",
        "descMd": "",
        "envelopePic": "",
        "fresh": false,
        "host": "",
        "id": 28613,
        "isAdminAdd": false,
        "link": "https://juejin.cn/post/7385772230770950181",
        "niceDate": "1天前",
        "niceShareDate": "1天前",
        "origin": "",
        "prefix": "",
        "projectLink": "",
        "publishTime": 1719759826000,
        "realSuperChapterId": 493,
        "selfVisible": 0,
        "shareDate": 1719759737000,
        "shareUser": "鸿洋",
        "superChapterId": 494,
        "superChapterName": "广场Tab",
        "tags": [],
        "title": "一文了解 apt、 kapt 、 ksp 和 kcp",
        "type": 0,
        "userId": 2,
        "visible": 1,
        "zan": 0
      },
      {
        "adminAdd": false,
        "apkLink": "",
        "audit": 1,
        "author": "",
        "canEdit": false,
        "chapterId": 502,
        "chapterName": "自助",
        "collect": false,
        "courseId": 13,
        "desc": "",
        "descMd": "",
        "envelopePic": "",
        "fresh": false,
        "host": "",
        "id": 28614,
        "isAdminAdd": false,
        "link": "https://juejin.cn/post/7385374199915626534",
        "niceDate": "1天前",
        "niceShareDate": "1天前",
        "origin": "",
        "prefix": "",
        "projectLink": "",
        "publishTime": 1719759825000,
        "realSuperChapterId": 493,
        "selfVisible": 0,
        "shareDate": 1719759746000,
        "shareUser": "鸿洋",
        "superChapterId": 494,
        "superChapterName": "广场Tab",
        "tags": [],
        "title": "Android14 使用新特性 record 关键字，请慎行！",
        "type": 0,
        "userId": 2,
        "visible": 1,
        "zan": 0
      },
      {
        "adminAdd": false,
        "apkLink": "",
        "audit": 1,
        "author": "",
        "canEdit": false,
        "chapterId": 502,
        "chapterName": "自助",
        "collect": false,
        "courseId": 13,
        "desc": "",
        "descMd": "",
        "envelopePic": "",
        "fresh": false,
        "host": "",
        "id": 28615,
        "isAdminAdd": false,
        "link": "https://juejin.cn/post/7384992816906747913",
        "niceDate": "1天前",
        "niceShareDate": "1天前",
        "origin": "",
        "prefix": "",
        "projectLink": "",
        "publishTime": 1719759823000,
        "realSuperChapterId": 493,
        "selfVisible": 0,
        "shareDate": 1719759752000,
        "shareUser": "鸿洋",
        "superChapterId": 494,
        "superChapterName": "广场Tab",
        "tags": [],
        "title": "ART 虚拟机的解释执行",
        "type": 0,
        "userId": 2,
        "visible": 1,
        "zan": 0
      },
      {
        "adminAdd": false,
        "apkLink": "",
        "audit": 1,
        "author": "",
        "canEdit": false,
        "chapterId": 502,
        "chapterName": "自助",
        "collect": false,
        "courseId": 13,
        "desc": "",
        "descMd": "",
        "envelopePic": "",
        "fresh": false,
        "host": "",
        "id": 28616,
        "isAdminAdd": false,
        "link": "https://juejin.cn/post/7384992816906764297",
        "niceDate": "1天前",
        "niceShareDate": "1天前",
        "origin": "",
        "prefix": "",
        "projectLink": "",
        "publishTime": 1719759820000,
        "realSuperChapterId": 493,
        "selfVisible": 0,
        "shareDate": 1719759758000,
        "shareUser": "鸿洋",
        "superChapterId": 494,
        "superChapterName": "广场Tab",
        "tags": [],
        "title": "理解包安装中的OAT流程",
        "type": 0,
        "userId": 2,
        "visible": 1,
        "zan": 0
      },
      {
        "adminAdd": false,
        "apkLink": "",
        "audit": 1,
        "author": "",
        "canEdit": false,
        "chapterId": 502,
        "chapterName": "自助",
        "collect": false,
        "courseId": 13,
        "desc": "",
        "descMd": "",
        "envelopePic": "",
        "fresh": false,
        "host": "",
        "id": 28617,
        "isAdminAdd": false,
        "link": "https://juejin.cn/post/7384801669510119434",
        "niceDate": "1天前",
        "niceShareDate": "1天前",
        "origin": "",
        "prefix": "",
        "projectLink": "",
        "publishTime": 1719759818000,
        "realSuperChapterId": 493,
        "selfVisible": 0,
        "shareDate": 1719759763000,
        "shareUser": "鸿洋",
        "superChapterId": 494,
        "superChapterName": "广场Tab",
        "tags": [],
        "title": "一篇文章学会jni技术及核心用法",
        "type": 0,
        "userId": 2,
        "visible": 1,
        "zan": 0
      },
      {
        "adminAdd": false,
        "apkLink": "",
        "audit": 1,
        "author": "",
        "canEdit": false,
        "chapterId": 502,
        "chapterName": "自助",
        "collect": false,
        "courseId": 13,
        "desc": "",
        "descMd": "",
        "envelopePic": "",
        "fresh": false,
        "host": "",
        "id": 28618,
        "isAdminAdd": false,
        "link": "https://juejin.cn/post/7384327143785087027",
        "niceDate": "1天前",
        "niceShareDate": "1天前",
        "origin": "",
        "prefix": "",
        "projectLink": "",
        "publishTime": 1719759816000,
        "realSuperChapterId": 493,
        "selfVisible": 0,
        "shareDate": 1719759768000,
        "shareUser": "鸿洋",
        "superChapterId": 494,
        "superChapterName": "广场Tab",
        "tags": [],
        "title": "盘点|统计Android内存使用的方法有哪些？",
        "type": 0,
        "userId": 2,
        "visible": 1,
        "zan": 0
      },
      {
        "adminAdd": false,
        "apkLink": "",
        "audit": 1,
        "author": "",
        "canEdit": false,
        "chapterId": 502,
        "chapterName": "自助",
        "collect": false,
        "courseId": 13,
        "desc": "",
        "descMd": "",
        "envelopePic": "",
        "fresh": false,
        "host": "",
        "id": 28619,
        "isAdminAdd": false,
        "link": "https://juejin.cn/post/7384326861964296201",
        "niceDate": "1天前",
        "niceShareDate": "1天前",
        "origin": "",
        "prefix": "",
        "projectLink": "",
        "publishTime": 1719759810000,
        "realSuperChapterId": 493,
        "selfVisible": 0,
        "shareDate": 1719759778000,
        "shareUser": "鸿洋",
        "superChapterId": 494,
        "superChapterName": "广场Tab",
        "tags": [],
        "title": "Android是如何做内存管理？",
        "type": 0,
        "userId": 2,
        "visible": 1,
        "zan": 0
      },
      {
        "adminAdd": false,
        "apkLink": "",
        "audit": 1,
        "author": "",
        "canEdit": false,
        "chapterId": 502,
        "chapterName": "自助",
        "collect": false,
        "courseId": 13,
        "desc": "",
        "descMd": "",
        "envelopePic": "",
        "fresh": false,
        "host": "",
        "id": 28621,
        "isAdminAdd": false,
        "link": "https://juejin.cn/post/7383029698114633779",
        "niceDate": "1天前",
        "niceShareDate": "1天前",
        "origin": "",
        "prefix": "",
        "projectLink": "",
        "publishTime": 1719759808000,
        "realSuperChapterId": 493,
        "selfVisible": 0,
        "shareDate": 1719759786000,
        "shareUser": "鸿洋",
        "superChapterId": 494,
        "superChapterName": "广场Tab",
        "tags": [],
        "title": "Android - 修改屏幕的density，竟然会导致获取的dimension是错误的？",
        "type": 0,
        "userId": 2,
        "visible": 1,
        "zan": 0
      },
      {
        "adminAdd": false,
        "apkLink": "",
        "audit": 1,
        "author": "",
        "canEdit": false,
        "chapterId": 502,
        "chapterName": "自助",
        "collect": false,
        "courseId": 13,
        "desc": "",
        "descMd": "",
        "envelopePic": "",
        "fresh": false,
        "host": "",
        "id": 28622,
        "isAdminAdd": false,
        "link": "https://juejin.cn/post/7385801028942004233",
        "niceDate": "1天前",
        "niceShareDate": "1天前",
        "origin": "",
        "prefix": "",
        "projectLink": "",
        "publishTime": 1719759801000,
        "realSuperChapterId": 493,
        "selfVisible": 0,
        "shareDate": 1719759791000,
        "shareUser": "鸿洋",
        "superChapterId": 494,
        "superChapterName": "广场Tab",
        "tags": [],
        "title": "深入ART JNI函数解析实现",
        "type": 0,
        "userId": 2,
        "visible": 1,
        "zan": 0
      },
      {
        "adminAdd": false,
        "apkLink": "",
        "audit": 1,
        "author": "鸿洋",
        "canEdit": false,
        "chapterId": 408,
        "chapterName": "鸿洋",
        "collect": false,
        "courseId": 13,
        "desc": "",
        "descMd": "",
        "envelopePic": "",
        "fresh": false,
        "host": "",
        "id": 28626,
        "isAdminAdd": false,
        "link": "https://mp.weixin.qq.com/s/6Mkx3yf6A0SVtMITI1SiAg",
        "niceDate": "2024-06-28 00:00",
        "niceShareDate": "23小时前",
        "origin": "",
        "prefix": "",
        "projectLink": "",
        "publishTime": 1719504000000,
        "realSuperChapterId": 407,
        "selfVisible": 0,
        "shareDate": 1719796938000,
        "shareUser": "",
        "superChapterId": 408,
        "superChapterName": "公众号",
        "tags": [
          {
            "name": "公众号",
            "url": "/wxarticle/list/408/1"
          }
        ],
        "title": "AGP 8.0 路由框架新思路",
        "type": 0,
        "userId": -1,
        "visible": 1,
        "zan": 0
      }
    ],
    "offset": 0,
    "over": false,
    "pageCount": 775,
    "size": 20,
    "total": 15493
  },
  "errorCode": 0,
  "errorMsg": ""
}